^D:\ROOT\MAKSIM\STUDY\PROGRAMMING\LABA7\LABA7\DEBUG\LABA7.OBJ
D:\ROOT\MAKSIM\STUDY\PROGRAMMING\LABA7\DEBUG\LABA7.EXE
D:\ROOT\MAKSIM\STUDY\PROGRAMMING\LABA7\DEBUG\LABA7.ILK
D:\ROOT\MAKSIM\STUDY\PROGRAMMING\LABA7\DEBUG\LABA7.PDB
